<svg viewBox="0 0 16 16" fill="none" xmlns="http://www.w3.org/2000/svg">
    <path d="M16 8C16 12.4188 12.4174 16 8 16C3.58258 16 0 12.4174 0 8C0 3.58116 3.58258 0 8 0C12.4174 0 16 3.58116 16 8Z" fill="#FFDD67"/>
    <path d="M15.7838 3.47163C15.471 2.8487 14.8409 2.44052 14.063 2.49314C13.258 2.55003 12.6422 2.98096 12.1358 3.69207C11.6238 2.98665 11.0038 2.55856 10.1988 2.51021C9.42082 2.46327 8.79504 2.87714 8.48642 3.50292C8.17495 4.13581 8.16073 4.96496 8.80073 5.90647C9.42935 6.83376 12.0718 8.73385 12.1572 8.795C12.2411 8.73243 14.8694 6.80958 15.4909 5.87945C16.1223 4.93367 16.101 4.1031 15.7838 3.47163Z" fill="#F46767"/>
    <path d="M7.50525 3.47163C7.19236 2.8487 6.56232 2.44052 5.78436 2.49314C4.98081 2.55003 4.36499 2.98096 3.85868 3.69207C3.34525 2.98665 2.72659 2.55856 1.92161 2.51021C1.14365 2.46327 0.517876 2.87714 0.209254 3.50292C-0.102213 4.13581 -0.116435 4.96496 0.523565 5.90647C1.15219 6.83376 3.79468 8.73385 3.88001 8.795C3.96392 8.73243 6.59219 6.80958 7.2137 5.87945C7.84374 4.93367 7.82383 4.1031 7.50525 3.47163Z" fill="#F46767"/>
    <path d="M11.3565 10.2301C9.19477 11.7376 6.79548 11.7291 4.64508 10.2301C4.38624 10.0495 4.15157 10.3623 4.32793 10.6511C4.98357 11.7305 6.30624 12.6905 8.0001 12.6905C9.69397 12.6905 11.0166 11.7291 11.6723 10.6511C11.8486 10.3623 11.6154 10.0495 11.3565 10.2301Z" fill="black"/>
</svg>
